b1.png{"success":true,"data":{"id":"1 2399 00130 59 2","name":"นาย สรรฐณัฐ แสงจันทร์"}}
b2.png{"success":true,"data":{"id":"1 1037 00103 99 6","name":"นาย ชยกร เอี่ยมฤกษ์ชัย"}}
b3.png{"success":true,"data":{"id":"1 6099 00266 22 9","name":"นน.ส. ณฐิกา ฤทธิบำรุง"}}
b4.jpg{"success":true,"data":{"id":"3 3203 00813 16 5","name":"นาย กุลธวัช แซ่จู"}}